91115 546487
350028 651475
986861 583149
196367 503474
175922 63406
187217 769985
912037 355908
248999 856091
908853 363320
532778 811345
611865 716098
570129 132361
401662 468717
572657 394799
800615 799942
779409 790719
606215 718114
393963 855910
49892 124491
480364 558506
730129 260895
726427 786368
578014 641041
186660 898668
358986 32248
439569 976393
589499 292107
509573 843316
395203 856385
920952 581575
908310 725455
171427 936418
466065 319012
279934 951620
307535 648855
658497 760282
909638 40051
676717 662134
830898 280372
928252 272587
296577 655734
181364 103146
303951 615804
36590 968998
893265 929234
215829 396669
346912 947118
215788 971201
599659 80926
458699 938318
916938 903238
739440 558747
316148 513867
262264 112488
541172 392457
184740 703969
718790 479152
703515 432829
648896 467163
26821 420081
603666 894705
889667 906846
820573 169840
941264 11577
460947 96429
285841 308454
971564 300331
66807 519225
222414 509726
478806 723715
657162 581955
943269 380671
865499 726880
42400 63885
176658 890040
778808 648491
171353 348961
813244 648967
164890 69525
274790 645153
645684 401501
702025 92720
231149 938711
24570 964907
425114 635752
666621 208603
210205 708534
378236 621963
253319 337762
295710 111497
281322 532749
41195 313300
948369 14746
705887 724224
104914 482321
90618 695995
430878 957746
434114 501115
778466 717023
75722 382241
560995 986363
557473 986867
861050 655304
697423 630744
939343 35556
129119 998773
413816 678373
771164 383298
187119 166022
115182 308064
722649 90501
630165 993570
921744 335253
382099 652007
3881 624186
841582 528156
929788 400096
262307 595998
290367 816002
716938 988271
685318 141326
121978 885349
611279 168392
711629 357395
441810 569645
611725 929894
716503 40235
211861 775196
469566 955717
238674 328440
39313 553796
665307 12885
602691 629312
857044 16565
532232 167750
225111 165350
14509 441131
9965 209065
980097 591004
855750 480963
849792 791268
409861 84582
326190 760311
812372 179521
681387 15097
135111 356284
653585 707876
97872 584934
268822 32363
503988 724953
791307 326983
31603 605948
489186 18334
21087 661883
514310 506424
675718 188641
216377 645819
74041 522877
758155 426369
85094 685642
477876 124969
547318 17817
872590 731448
296432 192379
579607 334714
582343 786973
927831 697554
544765 714839
197830 957786
460286 985274
155342 569409
228151 310881
534120 733753
557685 3175
277155 895072
308864 447378
483294 936533
197088 411408
582157 902514
383404 566239
915754 730783
792832 816004
813775 575711
949513 563323
671715 721017
572968 758925
768552 198098
713135 190720
6132 832838
521572 257808
580241 935761
989288 300701
297572 374277
246960 364769
396080 391556
147851 357518
330224 80290
818704 299170
615769 649735
176706 198387
270869 483245
650977 763736
53521 905820
29218 240670
454296 934103
