674342 106728 509
862723 824391 525
258903 571557 470
659479 232676 509
210532 195313 373
204829 279984 443
339550 934908 525
994130 315282 525
880081 158861 525
938779 757602 525
171323 972372 525
414406 50727 449
76462 776979 509
91803 54286 351
681287 923579 525
144833 815823 509
922788 943137 507
927420 863164 476
611923 95301 470
284503 114345 443
264048 312614 407
164150 876858 525
145519 244360 443
767450 517862 509
290454 646438 509
408394 81013 443
737740 312771 509
101314 485298 449
925972 687458 525
117716 334996 443
944455 126400 525
239450 423190 449
550753 949077 525
439406 145353 449
563284 943957 525
990036 904112 507
772787 69193 509
726225 483032 509
949812 426118 525
596976 551112 434
472389 945423 525
799660 340223 509
120852 474091 449
363037 607578 470
234924 131608 443
481147 758763 509
907093 40583 525
357676 567034 470
57240 10530 340
349134 751554 509
233567 838990 525
249078 146128 443
585513 1200 470
360688 633223 509
808451 400569 509
176088 631272 509
754534 528750 509
431915 716625 509
444844 861370 525
192553 22118 383
963413 312384 525
652251 348502 509
194843 945012 525
208990 898754 525
194955 299785 443
35980 176083 383
828975 186295 509
488316 453191 444
17998 38262 324
736032 993253 525
451690 371977 449
841132 631522 525
834450 88574 509
365118 925466 525
745674 793118 468
136023 483784 449
229712 855997 525
716858 417443 509
921024 468620 525
15801 981581 525
933988 16944 525
40102 736805 509
234255 581183 470
156884 260795 443
210910 252726 443
749673 800109 468
248182 637828 509
205378 735843 509
282186 773799 509
270574 686759 509
709295 970471 525
486122 225169 449
699952 383310 509
363822 502044 449
970596 303737 525
666741 621189 509
38167 611064 470
18223 580030 470
993945 212017 525
947164 793309 525
533656 46476 470
581185 517802 452
636887 749714 504
812719 874825 525
209291 116757 383
841417 987494 507
677711 183788 509
464242 396759 449
563762 585719 434
566796 625233 447
757269 443829 509
726163 32930 509
516939 325851 470
452350 449538 387
753614 114392 509
944132 798662 525
866141 673179 525
314135 935416 525
955902 809961 525
178515 249510 443
584330 981028 525
396746 19491 443
674034 187569 509
286903 31451 443
892938 134280 525
900975 835541 525
36888 659053 509
88838 630992 509
360774 148207 443
716238 492242 509
291847 699174 509
873972 334885 525
533494 925466 525
614826 43363 470
810422 295756 509
62291 464617 449
659025 822406 504
142833 914965 525
504444 528746 470
736405 212661 509
468002 250092 449
648045 854385 525
920742 785530 525
999654 2940 525
897998 284039 525
362733 567 443
431586 587189 470
530833 55200 470
651558 524479 509
712746 2246 509
924177 778326 525
135379 798050 509
928549 719645 525
820891 506323 509
338293 108488 443
4938 422869 449
861118 164093 525
84994 628966 509
428965 63554 449
78021 956042 525
42983 108462 354
995993 848372 507
411987 113676 449
705818 910693 525
307881 352152 441
673854 463673 509
74898 745153 509
302399 709420 509
916272 93826 525
565984 867777 525
226564 576995 470
385565 132903 443
574015 924913 525
317286 699149 509
11792 623745 470
374112 143204 443
818958 718237 468
751710 606536 509
874094 110962 525
712909 757297 424
326256 602046 470
58692 661762 509
771183 755209 468
612922 946210 525
57928 603612 470
352936 210790 443
979415 88823 525
168203 834860 509
698296 965697 525
138289 701200 509
210725 46931 383
326657 914499 525
804423 4373 509
850474 276888 525
530169 311816 470
870938 175809 525
324553 23711 443
257769 271335 407
681086 909091 525
672482 880832 525
483379 75653 449
882953 385711 525
404994 279116 441
467689 193955 449
293935 43577 443
55573 188507 383
195113 730156 509
760902 469253 509
774846 580169 509
373859 606436 470
192680 402538 443
388769 951592 525
836846 725565 468
701632 462473 509
933018 333540 525
485623 843909 525
802981 74152 509
795724 942598 525
406815 902010 525
270840 311471 389
14791 14145 271
373009 193113 443
945849 704729 525
342253 608296 470
135494 413146 449
13375 610420 470
75666 976741 525
117685 929566 525
438003 853553 525
608671 239035 470
632415 506949 509
170790 371175 443
352349 962947 525
627588 680700 442
302 197027 383
