33902 758752 509
77431 543611 470
777969 875652 525
675096 769611 504
133066 607887 470
652333 447755 509
744127 674119 504
703123 214499 509
278671 107947 443
405765 806888 509
776093 590513 509
463879 707420 509
692308 119361 509
329680 952848 525
446086 648021 509
624411 530003 452
838762 834963 525
319603 9 443
612164 488445 470
956530 588607 525
733911 187265 509
68340 321822 443
590660 487009 470
131376 444475 449
228117 563604 470
160383 193020 370
701934 285503 509
423134 321985 449
51649 642915 509
31967 846188 525
670470 174210 509
685541 70615 509
695246 280756 509
720439 473750 509
956289 401284 525
331824 265275 407
468457 737130 509
730029 426040 509
278798 204044 443
856949 160937 525
427148 257588 449
915912 216942 525
905361 476202 525
93397 961113 525
35621 856070 525
125039 632010 509
163615 370658 443
876730 819624 525
194016 228650 386
440328 629240 509
765623 495201 509
515112 345821 470
68745 35573 340
83867 448969 449
687696 863378 525
126651 667415 509
673052 852348 525
56633 969515 525
134458 340456 443
726119 156446 509
614770 124130 470
272085 6600 443
464976 118975 449
572509 865055 525
815184 190611 509
139411 966502 525
778932 546386 509
929487 562199 525
48963 596779 470
465417 550127 470
470034 280089 449
916807 210670 525
35882 263075 443
762022 498146 509
550275 863907 525
46807 906634 525
366554 519049 470
375257 701443 509
318405 244393 407
312501 674563 509
359154 951406 525
176435 221000 386
820525 774933 468
238727 535470 470
789749 188547 509
141298 529878 470
289254 862560 525
435186 382088 449
921617 37682 525
977793 324563 525
600892 756167 509
155222 417807 449
823762 885043 525
335624 337833 366
283415 306637 389
339961 867412 525
962028 330476 525
792512 578514 509
836265 832481 388
400967 598189 470
132434 58076 354
748445 280135 509
449641 922365 525
209600 369545 443
16726 685146 509
769476 879826 525
912114 857096 476
25725 27329 308
237287 87214 443
388249 747775 509
485340 528741 470
766024 775309 468
925935 689541 525
839329 619317 525
55775 938346 525
163323 212027 373
817529 831717 450
333294 756826 509
63163 912963 525
803723 994251 525
651177 511950 509
768322 168077 509
699000 603523 509
846362 422249 525
554829 221920 470
59299 366070 443
662280 862816 525
499067 442350 444
757444 669056 504
277652 237890 407
501530 550507 470
921760 798882 525
822579 902384 525
288318 82639 443
221703 273987 443
959745 168916 525
327861 433194 449
772409 371096 509
412939 631420 509
123456 199819 383
543246 582580 452
942156 221728 525
507001 627112 509
762795 317608 509
192290 33066 383
50496 279181 443
710787 540003 509
749683 446939 509
92085 48769 351
856864 563411 525
465757 850031 525
768978 836026 468
655200 315112 509
272973 665356 509
178811 756943 509
586331 10775 470
866961 720979 525
811236 43286 509
129082 739304 509
425594 496242 444
602513 49134 470
827924 101265 509
321132 36013 443
896956 61454 525
27011 773927 509
305106 379327 441
621725 721853 509
906 79471 351
513947 695266 509
736198 741958 424
715133 92855 509
114093 491675 449
91006 592353 470
314605 727972 509
390817 363066 436
427840 525444 470
241929 836691 509
276068 253679 407
480542 207525 449
479977 68001 449
734583 158914 509
748584 25183 509
522824 366476 470
566378 451468 470
188240 912883 525
276930 650898 509
367352 336413 441
485778 997916 525
42538 10253 324
570521 699863 509
900132 424024 525
930768 732065 525
597473 491200 470
179097 905149 525
259588 911258 525
479977 147382 449
521125 520522 333
756187 950078 525
132985 997982 525
434043 68401 449
911834 181958 525
177451 756846 509
978829 104329 525
306813 709280 509
428619 183256 449
9461 534283 470
154620 252648 443
636753 659357 429
949738 447766 525
910443 933252 476
351126 165616 443
454507 484070 444
841049 154547 525
515503 637437 509
23612 528465 470
260055 993317 525
813606 542746 509
288427 761613 509
803117 567628 509
453838 184581 449
591222 102365 470
975196 37254 525
197680 786345 509
703716 983045 525
252184 389064 441
653986 477033 509
827241 131941 509
589754 216334 470
560378 629416 509
377204 970304 525
659029 978367 525
986813 784784 525
601993 459480 470
117885 54443 354
872821 651553 525
189700 594882 470
63434 213603 383
664435 690143 442
241200 659277 509
510434 568569 470
862186 958320 507
73930 718863 509
606983 442395 470
665265 825441 504
512123 29746 470
831961 26807 509
605966 121653 470
832606 7170 509
579898 512931 452
3738 730587 509
152598 740575 509
536004 936633 525
690643 827897 504
755636 967831 525
453701 996485 525
357722 385809 423
814792 351340 509
443942 388588 449
490415 109891 449
920468 432285 525
619272 271143 470
388839 654374 509
52938 773949 509
976096 20927 525
124089 822710 509
767096 922748 525
16557 436918 449
404621 339539 441
723482 182675 509
100658 538391 470
53508 9262 340
210334 144803 383
486868 357162 449
688114 747186 504
734742 946109 525
19754 992745 525
617453 795144 509
377740 113732 443
378656 372254 423
659490 236433 509
787907 152559 509
