878375 140570
149626 200213
935290 768264
694397 994326
823700 921192
751002 34674
521277 865532
531892 679518
662134 369971
768354 103756
823928 222624
541812 468730
770605 35075
747100 901645
890014 935771
990347 344962
327087 884683
630147 217511
929045 820339
382812 767608
499255 560786
369641 705961
462800 368825
787051 584003
706774 770355
618525 291486
29904 586821
755382 345136
344100 785656
147317 583712
826200 784295
789497 948491
889226 700020
597931 518545
16112 827013
847045 442302
674962 982002
641372 564672
938073 461831
439465 409902
26081 427134
830255 868521
859624 223708
951078 507661
540803 159947
241333 983851
553339 746022
591930 347152
172671 166610
867658 947994
461199 462626
616125 54656
249333 941163
306396 497707
952725 233675
926886 671897
856242 502831
167953 391973
999172 965650
673048 736214
294123 394777
550904 392307
263938 594482
805162 891539
832052 927535
750992 269744
180265 938919
950060 212438
815258 650311
943476 496708
600559 777806
844430 60214
338832 779630
384579 621579
258861 846062
673789 215536
320488 507289
243599 378960
494768 318028
65652 844314
458586 187842
559561 157860
436011 640474
72673 193157
407766 799432
977674 687311
256340 312500
710417 224314
904922 738794
76284 314920
321383 337081
811841 381978
882751 831073
463838 100370
994398 595894
178074 162684
465197 995861
511219 536318
867094 652447
14812 656973
443556 532838
806438 10433
218693 778821
600330 170031
69010 814142
456120 895340
456116 391753
985595 551002
280438 279003
466989 728168
214031 428738
110592 859811
442351 852691
759064 133581
493005 480775
411343 706076
698585 4330
981520 686932
447819 597209
780671 788481
120954 958322
56175 72518
819152 522202
578988 147209
576477 670652
192338 16984
626404 331027
519349 427828
110040 193846
159454 384071
450854 937996
179471 29864
943694 236208
307375 807886
726335 371359
517085 737212
730586 142819
684280 138083
811540 201424
161888 893473
457741 837692
277739 578245
159081 724455
488618 108322
501341 473363
500552 32773
86759 60969
520177 340868
627298 297684
865789 497352
556738 95723
835334 45017
820226 232616
935917 964147
212267 924347
31022 191483
843111 245987
884967 855702
774045 190149
638227 824737
222390 989200
701501 487270
797194 837795
970105 492080
522463 771183
682451 204405
863010 965624
932501 332393
55579 321433
288841 327371
733416 333818
442969 144319
601570 283537
975350 142730
384703 624921
523873 31458
840421 735072
50618 258993
681031 949498
560654 385145
146595 851946
989580 282629
657045 814885
748354 448629
278562 257617
870022 187863
971652 543326
530978 425677
358902 695495
919195 886761
178217 308828
915876 640701
54187 197399
930066 517491
869389 57051
220023 562627
103298 603601
196613 660026
50918 468670
749568 708755
637519 748101
430164 124994
149496 14346
418696 368435
44538 786163
989790 821688
422894 725180
887284 659802
81719 838001
615844 546750
69890 426716
556671 648770
963211 444067
956303 379543
164394 666484
874338 307214
393100 575095
515770 27991
413389 12489
729632 187057
214340 953926
632680 494332
517703 873746
198174 254819
723347 289258
686611 461132
693858 597773
422802 466644
373455 610498
750610 906991
536859 956144
